<?xml version="1.0" encoding="UTF-8"?>
<svg width="14px" height="14px" viewBox="0 0 14 14" version="1.1" xmlns="http://www.w3.org/2000/svg" xmlns:xlink="http://www.w3.org/1999/xlink">
    <!-- Generator: Sketch 46.2 (44496) - http://www.bohemiancoding.com/sketch -->
    <title>icon_winter</title>
    <desc>Created with Sketch.</desc>
    <defs></defs>
    <g id="Page-1" stroke="none" stroke-width="1" fill="none" fill-rule="evenodd">
        <g id="Elements" transform="translate(-568.000000, -172.000000)" fill-rule="nonzero" fill="#4AA3FF">
            <g id="icon_winter" transform="translate(568.000000, 172.000000)">
                <polygon id="Shape" points="13.989082 6.29508197 11.0723607 6.29508197 13.3385902 4.02534426 12.3488525 3.03911475 9.09288525 6.29508197 7.694 6.29508197 7.694 4.89616393 10.9499344 1.64022951 9.96370492 0.650491803 7.694 2.91672131 7.694 0 6.29508197 0 6.29508197 2.91672131 4.02534426 0.650491803 3.03911475 1.64022951 6.29508197 4.89616393 6.29508197 6.29508197 4.89616393 6.29508197 1.64022951 3.03911475 0.650491803 4.02534426 2.91672131 6.29508197 0 6.29508197 0 7.694 2.91672131 7.694 0.650491803 9.96370492 1.64022951 10.9499344 4.89616393 7.694 6.29508197 7.694 6.29508197 9.09288525 3.03911475 12.3488525 4.02534426 13.3385902 6.29508197 11.0723607 6.29508197 13.989082 7.694 13.989082 7.694 11.0723607 9.96370492 13.3385902 10.9499344 12.3488525 7.694 9.09288525 7.694 7.694 9.09288525 7.694 12.3488525 10.9499344 13.3385902 9.96370492 11.0723607 7.694 13.989082 7.694"></polygon>
            </g>
        </g>
    </g>
</svg>