<?xml version="1.0" encoding="UTF-8"?>
<svg width="12px" height="18px" viewBox="0 0 12 18" version="1.1" xmlns="http://www.w3.org/2000/svg" xmlns:xlink="http://www.w3.org/1999/xlink">
    <!-- Generator: Sketch 46.2 (44496) - http://www.bohemiancoding.com/sketch -->
    <title>iocn_phone</title>
    <desc>Created with Sketch.</desc>
    <defs></defs>
    <g id="Page-1" stroke="none" stroke-width="1" fill="none" fill-rule="evenodd">
        <g id="Elements" transform="translate(-51.000000, -205.000000)" fill="#ff5858">
            <path d="M51,205 L63,205 L63,223 L51,223 L51,205 Z M54,208 L54,219 L60,219 L60,208 L54,208 Z" id="iocn_phone"></path>
        </g>
    </g>
</svg>