<?xml version="1.0" encoding="UTF-8"?>
<svg width="23px" height="11px" viewBox="0 0 23 11" version="1.1" xmlns="http://www.w3.org/2000/svg" xmlns:xlink="http://www.w3.org/1999/xlink">
    <!-- Generator: Sketch 49.2 (51160) - http://www.bohemiancoding.com/sketch -->
    <title>icon-06</title>
    <desc>Created with Sketch.</desc>
    <defs></defs>
    <g id="Page-1" stroke="none" stroke-width="1" fill="none" fill-rule="evenodd">
        <g id="Elements" transform="translate(-25.000000, -352.000000)" fill="#AD40FF">
            <g id="icon-06" transform="translate(25.000000, 352.000000)">
                <polygon id="Rectangle-22-Copy" points="0 2 5 2 5 10 0 10 2 6"></polygon>
                <polygon id="Rectangle-22-Copy-2" transform="translate(20.500000, 6.000000) scale(-1, 1) translate(-20.500000, -6.000000) " points="18 2 23 2 23 10 18 10 20 6"></polygon>
                <rect id="Rectangle-22" x="7" y="0" width="9" height="11"></rect>
            </g>
        </g>
    </g>
</svg>