<?xml version="1.0" encoding="UTF-8"?>
<svg width="20px" height="20px" viewBox="0 0 20 20" version="1.1" xmlns="http://www.w3.org/2000/svg" xmlns:xlink="http://www.w3.org/1999/xlink">
    <!-- Generator: Sketch 49.2 (51160) - http://www.bohemiancoding.com/sketch -->
    <title>icon-cat-table</title>
    <desc>Created with Sketch.</desc>
    <defs></defs>
    <g id="Page-1" stroke="none" stroke-width="1" fill="none" fill-rule="evenodd">
        <g id="00---Graphics" transform="translate(-164.000000, -404.000000)" fill="#FF4040">
            <g id="icon-cat-table" transform="translate(164.000000, 404.000000)">
                <g>
                    <rect id="Rectangle-11" x="0" y="0" width="8.42105263" height="8.42105263"></rect>
                    <rect id="Rectangle-11-Copy-2" x="0" y="11.5789474" width="8.42105263" height="8.42105263"></rect>
                    <rect id="Rectangle-11-Copy" x="11.5789474" y="0" width="8.42105263" height="8.42105263"></rect>
                    <rect id="Rectangle-11-Copy-3" x="11.5789474" y="11.5789474" width="8.42105263" height="8.42105263"></rect>
                </g>
            </g>
        </g>
    </g>
</svg>