<?xml version="1.0" encoding="UTF-8"?>
<svg width="16px" height="17px" viewBox="0 0 16 17" version="1.1" xmlns="http://www.w3.org/2000/svg" xmlns:xlink="http://www.w3.org/1999/xlink">
    <!-- Generator: Sketch 49.2 (51160) - http://www.bohemiancoding.com/sketch -->
    <title>icon-05</title>
    <desc>Created with Sketch.</desc>
    <defs></defs>
    <g id="Page-1" stroke="none" stroke-width="1" fill="none" fill-rule="evenodd">
        <g id="Elements" transform="translate(-29.000000, -296.000000)" fill="#ED2A7B">
            <g id="icon-05" transform="translate(29.000000, 296.000000)">
                <path d="M3.49958804,8.875 C4.52582016,10.2412525 6.15970494,11.125 8,11.125 C9.84029506,11.125 11.4741798,10.2412525 12.500412,8.875 L15.8434487,8.875 C15.8630105,9.08354521 15.875,9.29402498 15.875,9.50721313 C15.875,13.5071026 12.3494551,16.75 8,16.75 C3.65075523,16.75 0.125,13.5071026 0.125,9.50721313 C0.125,9.29402498 0.137199845,9.08354521 0.156761666,8.875 L3.49958804,8.875 Z" id="Combined-Shape"></path>
                <circle id="Oval" cx="8" cy="4.625" r="4.3125"></circle>
            </g>
        </g>
    </g>
</svg>