<?xml version="1.0" encoding="UTF-8"?>
<svg width="14px" height="22px" viewBox="0 0 14 22" version="1.1" xmlns="http://www.w3.org/2000/svg" xmlns:xlink="http://www.w3.org/1999/xlink">
    <!-- Generator: Sketch 49.2 (51160) - http://www.bohemiancoding.com/sketch -->
    <title>icon-cat-card</title>
    <desc>Created with Sketch.</desc>
    <defs></defs>
    <g id="Page-1" stroke="none" stroke-width="1" fill="none" fill-rule="evenodd">
        <g id="00---Graphics" transform="translate(-131.000000, -404.000000)" fill="#FF4040">
            <g id="icon-cat-card" transform="translate(131.000000, 404.000000)">
                <g>
                    <rect id="Rectangle-11" x="0" y="0" width="14" height="15"></rect>
                    <rect id="Rectangle-11-Copy" x="0" y="17" width="14" height="5"></rect>
                </g>
            </g>
        </g>
    </g>
</svg>