<?xml version="1.0" encoding="UTF-8"?>
<svg width="18px" height="14px" viewBox="0 0 18 14" version="1.1" xmlns="http://www.w3.org/2000/svg" xmlns:xlink="http://www.w3.org/1999/xlink">
    <!-- Generator: Sketch 49.2 (51160) - http://www.bohemiancoding.com/sketch -->
    <title>icon-04</title>
    <desc>Created with Sketch.</desc>
    <defs></defs>
    <g id="Page-1" stroke="none" stroke-width="1" fill="none" fill-rule="evenodd">
        <g id="Elements" transform="translate(-28.000000, -245.000000)" fill="#2DC8A8">
            <g id="icon-04" transform="translate(28.000000, 245.000000)">
                <path d="M9,0 L9,0 L13.5,0 L18,9.33333333 L14.625,11.6666667 L12.375,7 L12.375,14 L5.625,14 L5.625,7 L3.375,11.6666667 L0,9.33333333 L4.5,0 L9,0 Z" id="Combined-Shape"></path>
            </g>
        </g>
    </g>
</svg>