<?xml version="1.0" encoding="UTF-8"?>
<svg width="18px" height="22px" viewBox="0 0 18 22" version="1.1" xmlns="http://www.w3.org/2000/svg" xmlns:xlink="http://www.w3.org/1999/xlink">
    <!-- Generator: Sketch 49.2 (51160) - http://www.bohemiancoding.com/sketch -->
    <title>Mask</title>
    <desc>Created with Sketch.</desc>
    <defs>
        <path d="M4,5 L4,3 C4,1.34314575 5.34314575,3.04359188e-16 7,0 L11,0 C12.6568542,-3.04359188e-16 14,1.34314575 14,3 L14,5 L17,5 L18,22 L0,22 L1,5 L4,5 Z M12,5 L12,3 C12,2.44771525 11.5522847,2 11,2 L7,2 C6.44771525,2 6,2.44771525 6,3 L6,5 L12,5 Z" id="path-1"></path>
    </defs>
    <g id="Symbols" stroke="none" stroke-width="1" fill="none" fill-rule="evenodd">
        <g id="cart">
            <g id="Fill/Primary">
                <mask id="mask-2" fill="white">
                    <use xlink:href="#path-1"></use>
                </mask>
                <use id="Mask" fill="#fff" xlink:href="#path-1"></use>
            </g>
        </g>
    </g>
</svg>