<?xml version="1.0" encoding="UTF-8"?>
<svg width="10px" height="13px" viewBox="0 0 10 13" version="1.1" xmlns="http://www.w3.org/2000/svg" xmlns:xlink="http://www.w3.org/1999/xlink">
    <!-- Generator: Sketch 49.2 (51160) - http://www.bohemiancoding.com/sketch -->
    <title>icon-pay</title>
    <desc>Created with Sketch.</desc>
    <defs></defs>
    <g id="Page-1" stroke="none" stroke-width="1" fill="none" fill-rule="evenodd">
        <g id="Elements" transform="translate(-123.000000, -284.000000)" fill="#FF4040">
            <path d="M123,291.531 L123,289.899 L124.343,289.899 L124.343,284 L127.777,284 C131.806,284 132.282,286.652 132.282,287.842 C132.282,289.355 131.398,291.531 127.777,291.531 L126.672,291.531 L126.672,292.721 L130.395,292.721 L130.395,294.081 L126.672,294.081 L126.672,296.58 L124.343,296.58 L124.343,294.081 L123,294.081 L123,292.721 L124.343,292.721 L124.343,291.531 L123,291.531 Z M126.672,286.176 L126.672,289.899 L127.913,289.899 C128.576,289.899 129.953,289.661 129.953,287.978 C129.953,286.397 128.542,286.176 127.913,286.176 L126.672,286.176 Z" id="icon-pay"></path>
        </g>
    </g>
</svg>