<?xml version="1.0" encoding="UTF-8"?>
<svg width="32px" height="28px" viewBox="0 0 32 28" version="1.1" xmlns="http://www.w3.org/2000/svg" xmlns:xlink="http://www.w3.org/1999/xlink">
    <!-- Generator: Sketch 49.2 (51160) - http://www.bohemiancoding.com/sketch -->
    <title>search</title>
    <desc>Created with Sketch.</desc>
    <defs></defs>
    <g id="Page-1" stroke="none" stroke-width="1" fill="none" fill-rule="evenodd">
        <g id="Elements" transform="translate(-132.000000, -31.000000)" fill="#FF4040">
            <path d="M153.897874,48.3590074 L164,55.6986316 L161.576249,59.0346382 L151.283839,51.5567646 C149.240712,53.3084342 146.585607,54.366675 143.683337,54.366675 C137.230808,54.366675 132,49.1358666 132,42.6833375 C132,36.2308084 137.230808,31 143.683337,31 C150.135867,31 155.366675,36.2308084 155.366675,42.6833375 C155.366675,44.7432109 154.833598,46.6785775 153.897874,48.3590074 Z M143.683337,50.2431441 C147.858503,50.2431441 151.243144,46.8585034 151.243144,42.6833375 C151.243144,38.5081716 147.858503,35.1235309 143.683337,35.1235309 C139.508172,35.1235309 136.123531,38.5081716 136.123531,42.6833375 C136.123531,46.8585034 139.508172,50.2431441 143.683337,50.2431441 Z" id="search"></path>
        </g>
    </g>
</svg>